…
## See also

- [`data_ssvd_lfp()`](https://bayesiandemography.github.io/bssvd/reference/data_ssvd_lfp.md)
  Put OECD labour force participation data into the format required by
  the `ssvd()` function in bage

- [`tidy_lfp()`](https://bayesiandemography.github.io/bssvd/reference/tidy_lfp.md)
  Format OECD labour force participation data into a tidy data frame.

## Examples

``` r
coef_lfp(oecd_lfp_subset)
#> # A tibble: 2,235 × 5
#>    sex    country  time component     coef
#>    <chr>  <chr>   <int> <chr>        <dbl>
#>  1 Female AUS      2010 Component 1 -0.717
#>  2 Female AUS      2011 Component 1 -0.675
#>  3 Female AUS      2012 Component 1 -0.681
#>  4 Female AUT      2010 Component 1  0.410
#>  5 Female AUT      2011 Component 1  0.496
#>  6 Female AUT      2012 Component 1  0.593
#>  7 Female BEL      2010 Component 1  0.777
#>  8 Female BEL      2011 Component 1  0.537
#>  9 Female BEL      2012 Component 1  0.667
#> 10 Female BGR      2010 Component 1  0.808
#> # ℹ 2,225 more rows
```
