…
## See also

- [`data_ssvd_hfd()`](https://bayesiandemography.github.io/bssvd/reference/data_ssvd_hfd.md)Put
  data from the Human Fertility Database into the format required by the
  `ssvd()` function in bage.

- [`tidy_hfd()`](https://bayesiandemography.github.io/bssvd/reference/tidy_hfd.md)
  Format data from the Human Fertility Database into a tidy data frame

## Examples

``` r
coef_hfd(asfr_subset)
#> # A tibble: 3,815 × 4
#>    country  time component      coef
#>    <chr>   <int> <chr>         <dbl>
#>  1 AUT      1980 Component 1 -0.355 
#>  2 AUT      1981 Component 1 -0.275 
#>  3 AUT      1982 Component 1  0.0416
#>  4 AUT      1983 Component 1  0.176 
#>  5 AUT      1984 Component 1  0.285 
#>  6 AUT      1985 Component 1  0.471 
#>  7 AUT      1986 Component 1  0.134 
#>  8 AUT      1987 Component 1  0.191 
#>  9 AUT      1988 Component 1  0.515 
#> 10 AUT      1989 Component 1  0.472 
#> # ℹ 3,805 more rows
```
