…
- [`tidy_wmd()`](https://bayesiandemography.github.io/bssvd/reference/tidy_wmd.md)
  Format World Marriage Data into a tidy data frame.

## Examples

``` r
file <- system.file(
  "extdata",
  "undesa_pd_2019_wmd_marital_status_subset.xlsx",
  package = "bssvd"
)
coef_wmd(file)
#> # A tibble: 60 × 5
#>    sex    country           time component      coef
#>    <chr>  <chr>            <int> <chr>         <dbl>
#>  1 Female Afghanistan.2015     5 Component 1  1.03  
#>  2 Female Albania           2000 Component 1  1.09  
#>  3 Female Albania           2001 Component 1 -0.189 
#>  4 Female Albania.2008         5 Component 1  0.339 
#>  5 Female Albania           2011 Component 1 -1.22  
#>  6 Female Albania.2017         5 Component 1 -1.05  
#>  7 Female Afghanistan.2015     5 Component 2  1.88  
#>  8 Female Albania           2000 Component 2 -0.0981
#>  9 Female Albania           2001 Component 2  0.185 
#> 10 Female Albania.2008         5 Component 2 -0.356 
#> # ℹ 50 more rows
```
