…
- [`data_ssvd_hmd()`](https://bayesiandemography.github.io/bssvd/reference/data_ssvd_hmd.md)
  Put data from the Human Mortality Database into the format required by
  the `ssvd()` function in bage

- [`tidy_hmd()`](https://bayesiandemography.github.io/bssvd/reference/tidy_hmd.md)
  Format data from the Human Mortality Database into a tidy data frame

## Examples

``` r
zipfile <- system.file("extdata", "hmd_statistics_20250925_subset.zip",
                       package = "bssvd")
coef_hmd(zipfile)
#> # A tibble: 1,515 × 5
#>    sex   country  time component    coef
#>    <fct> <chr>   <int> <chr>       <dbl>
#>  1 Total AUS      1921 Component 1 -1.66
#>  2 Total AUS      1922 Component 1 -1.52
#>  3 Total AUS      1923 Component 1 -1.59
#>  4 Total AUS      1924 Component 1 -1.51
#>  5 Total AUS      1925 Component 1 -1.45
#>  6 Total AUS      1926 Component 1 -1.49
#>  7 Total AUS      1927 Component 1 -1.47
#>  8 Total AUS      1928 Component 1 -1.49
#>  9 Total AUS      1929 Component 1 -1.48
#> 10 Total AUS      1930 Component 1 -1.27
#> # ℹ 1,505 more rows
```
