…
- [`data_ssvd_hmd()`](https://bayesiandemography.github.io/bssvd/reference/data_ssvd_hmd.md)
  Put data from the Human Internal Migration Database into the format
  required by the `ssvd()` function in bage

- [`tidy_hmd()`](https://bayesiandemography.github.io/bssvd/reference/tidy_hmd.md)
  Format data from the Human Internal Migration Database into a tidy
  data frame

## Examples

``` r
zipfile <- system.file("extdata", "himd_20241023_subset.zip",
                       package = "bssvd")
coef_himd(zipfile)
#> # A tibble: 55 × 4
#>    country_orig_dest                  time component     coef
#>    <chr>                             <int> <chr>        <dbl>
#>  1 Trinidad and Tobago.780010.780020  1999 Component 1  0.280
#>  2 Trinidad and Tobago.780010.780080  1999 Component 1 -1.92 
#>  3 Trinidad and Tobago.780010.780094  1999 Component 1  0.226
#>  4 Trinidad and Tobago.780020.780010  1999 Component 1  0.809
#>  5 Trinidad and Tobago.780020.780080  1999 Component 1 -1.79 
#>  6 Trinidad and Tobago.780020.780094  1999 Component 1  0.718
#>  7 Trinidad and Tobago.780080.780010  1999 Component 1  0.281
#>  8 Trinidad and Tobago.780080.780020  1999 Component 1  0.582
#>  9 Trinidad and Tobago.780080.780094  1999 Component 1  0.718
#> 10 Trinidad and Tobago.780094.780010  1999 Component 1  0.711
#> # ℹ 45 more rows
```
