…
- [`coef_hfd()`](https://bayesiandemography.github.io/bssvd/reference/coef_hfd.md)
  Obtain time series of SVD coefficients from Human Fertility Database
  data

- [`tidy_hfd()`](https://bayesiandemography.github.io/bssvd/reference/tidy_hfd.md)
  Format data from the Human Fertility Database into a tidy data frame

## Examples

``` r
data <- data_ssvd_hfd(asfr_subset)
#> Tidying data...
#> Carrying out SVD for 'total'...
data
#> # A tibble: 34 × 5
#>    type  labels_age labels_sexgender matrix         offset    
#>    <chr> <list>     <list>           <list>         <list>    
#>  1 total <chr [38]> <NULL>           <dgCMatrx[,5]> <dbl [38]>
#>  2 total <chr [39]> <NULL>           <dgCMatrx[,5]> <dbl [39]>
#>  3 total <chr [40]> <NULL>           <dgCMatrx[,5]> <dbl [40]>
#>  4 total <chr [41]> <NULL>           <dgCMatrx[,5]> <dbl [41]>
#>  5 total <chr [42]> <NULL>           <dgCMatrx[,5]> <dbl [42]>
#>  6 total <chr [43]> <NULL>           <dgCMatrx[,5]> <dbl [43]>
#>  7 total <chr [44]> <NULL>           <dgCMatrx[,5]> <dbl [44]>
#>  8 total <chr [37]> <NULL>           <dgCMatrx[,5]> <dbl [37]>
#>  9 total <chr [38]> <NULL>           <dgCMatrx[,5]> <dbl [38]>
#> 10 total <chr [39]> <NULL>           <dgCMatrx[,5]> <dbl [39]>
#> # ℹ 24 more rows
```
