…
- [`tidy_csa()`](https://bayesiandemography.github.io/bssvd/reference/tidy_csa.md)
  Format census school attendance data into a tidy data frame.

## Examples

``` r
data_ssvd_csa(un_csa_subset)
#> Tidying data...
#> Carrying out SVD for 'total'...
#> Carrying out SVD for 'indep'...
#> Carrying out SVD for 'joint'...
#> Combining results...
#> # A tibble: 33 × 5
#>    type  labels_age labels_sexgender matrix         offset    
#>    <chr> <list>     <list>           <list>         <list>    
#>  1 total <int [10]> <NULL>           <dgCMatrx[,5]> <dbl [10]>
#>  2 total <int [11]> <NULL>           <dgCMatrx[,5]> <dbl [11]>
#>  3 total <int [12]> <NULL>           <dgCMatrx[,5]> <dbl [12]>
#>  4 total <int [13]> <NULL>           <dgCMatrx[,5]> <dbl [13]>
#>  5 total <int [14]> <NULL>           <dgCMatrx[,5]> <dbl [14]>
#>  6 total <int [15]> <NULL>           <dgCMatrx[,5]> <dbl [15]>
#>  7 total <int [16]> <NULL>           <dgCMatrx[,5]> <dbl [16]>
#>  8 total <int [17]> <NULL>           <dgCMatrx[,5]> <dbl [17]>
#>  9 total <int [18]> <NULL>           <dgCMatrx[,5]> <dbl [18]>
#> 10 total <int [19]> <NULL>           <dgCMatrx[,5]> <dbl [19]>
#> # ℹ 23 more rows
```
