Prepare Data from Human Mortality Database — data_ssvd_hmd • bssvd
…
    Examples

zipfile <- system.file("extdata", "hmd_statistics_20250925_subset.zip",
                       package = "bssvd")
data <- data_ssvd_hmd(zipfile)
#> Unzipping file...
#> Tidying data...
#> Creating five-year age groups...
#> Assembling datasets for alternative open age groups...
#> Carrying out SVD for 'total'...
#> Carrying out SVD for 'indep'...
#> Carrying out SVD for 'joint'...
#> Combining results...
data
#> # A tibble: 99 × 5
#>    type  labels_age  labels_sexgender matrix         offset     
#>    <chr> <list>      <list>           <list>         <list>     
#>  1 total <chr [61]>  <NULL>           <dgCMatrx[,5]> <dbl [61]> 
#>  2 total <chr [66]>  <NULL>           <dgCMatrx[,5]> <dbl [66]> 
#>  3 total <chr [71]>  <NULL>           <dgCMatrx[,5]> <dbl [71]> 
#>  4 total <chr [76]>  <NULL>           <dgCMatrx[,5]> <dbl [76]> 
#>  5 total <chr [81]>  <NULL>           <dgCMatrx[,5]> <dbl [81]> 
#>  6 total <chr [86]>  <NULL>           <dgCMatrx[,5]> <dbl [86]> 
#>  7 total <chr [91]>  <NULL>           <dgCMatrx[,5]> <dbl [91]> 
#>  8 total <chr [96]>  <NULL>           <dgCMatrx[,5]> <dbl [96]> 
#>  9 total <chr [101]> <NULL>           <dgCMatrx[,5]> <dbl [101]>
#> 10 total <chr [106]> <NULL>           <dgCMatrx[,5]> <dbl [106]>
#> # ℹ 89 more rows
…
