…
- [`tidy_hmd()`](https://bayesiandemography.github.io/bssvd/reference/tidy_hmd.md)
  Format data from the Human Internal Migration Database into a tidy
  data frame

## Examples

``` r
zipfile <- system.file("extdata", "himd_20241023_subset.zip",
                       package = "bssvd")
data_ssvd_himd(zipfile)
#> Unzipping file...
#> Creating five-year age groups...
#> Assembling datasets for alternative open age groups...
#> Carrying out SVD...
#> # A tibble: 22 × 5
#>    type  labels_age  labels_sexgender matrix         offset     
#>    <chr> <list>      <list>           <list>         <list>     
#>  1 total <chr [61]>  <NULL>           <dgCMatrx[,5]> <dbl [61]> 
#>  2 total <chr [66]>  <NULL>           <dgCMatrx[,5]> <dbl [66]> 
#>  3 total <chr [71]>  <NULL>           <dgCMatrx[,5]> <dbl [71]> 
#>  4 total <chr [76]>  <NULL>           <dgCMatrx[,5]> <dbl [76]> 
#>  5 total <chr [81]>  <NULL>           <dgCMatrx[,5]> <dbl [81]> 
#>  6 total <chr [86]>  <NULL>           <dgCMatrx[,5]> <dbl [86]> 
#>  7 total <chr [91]>  <NULL>           <dgCMatrx[,5]> <dbl [91]> 
#>  8 total <chr [96]>  <NULL>           <dgCMatrx[,5]> <dbl [96]> 
#>  9 total <chr [101]> <NULL>           <dgCMatrx[,5]> <dbl [101]>
#> 10 total <chr [106]> <NULL>           <dgCMatrx[,5]> <dbl [106]>
#> # ℹ 12 more rows
```
